{"componentChunkName":"component---src-templates-posts-page-template-tsx","path":"/page/6/","result":{"data":{"allMarkdownRemark":{"edges":[{"node":{"excerpt":"이번 포스팅에서는 저번 포스팅에 이어 중력을 직접 JS로 구현해보려고 한다. 개발환경은 JavaScript ES7, babel, Webpack, Three.js을 사용하였다.","fields":{"slug":"20170506-gravity-via-js-2","path":"/2017/05/06/gravity-via-js-2/","lang":"ko"},"frontmatter":{"title":"[JavaScript로 중력 구현하기] 2. 코딩하기","thumbnail":{"childImageSharp":{"fixed":{"base64":"data:image/jpeg;base64,/9j/2wBDABALDA4MChAODQ4SERATGCgaGBYWGDEjJR0oOjM9PDkzODdASFxOQERXRTc4UG1RV19iZ2hnPk1xeXBkeFxlZ2P/2wBDARESEhgVGC8aGi9jQjhCY2NjY2NjY2NjY2NjY2NjY2NjY2NjY2NjY2NjY2NjY2NjY2NjY2NjY2NjY2NjY2NjY2P/wgARCAAUABQDASIAAhEBAxEB/8QAGAABAQEBAQAAAAAAAAAAAAAAAAMCBAX/xAAWAQEBAQAAAAAAAAAAAAAAAAACAwH/2gAMAwEAAhADEAAAAU88tZ+8oCnIWYCP/8QAGxAAAwACAwAAAAAAAAAAAAAAAQIDABMQERL/2gAIAQEAAQUCah6nUO2rLISkJts94Rz/AP/EABcRAQADAAAAAAAAAAAAAAAAAAABECH/2gAIAQMBAT8BYmv/xAAXEQADAQAAAAAAAAAAAAAAAAAAARAh/9oACAECAQE/AWaKf//EABkQAAMAAwAAAAAAAAAAAAAAAAABERAgUf/aAAgBAQAGPwKtkxBPmv8A/8QAGBABAQEBAQAAAAAAAAAAAAAAAQAREGH/2gAIAQEAAT8hAl4WKrvsbNlAiN4lNt//2gAMAwEAAgADAAAAED8wPf/EABYRAQEBAAAAAAAAAAAAAAAAAAERIP/aAAgBAwEBPxAiVwf/xAAYEQEBAAMAAAAAAAAAAAAAAAABEQAQIf/aAAgBAgEBPxCqAcy7P//EABsQAQACAwEBAAAAAAAAAAAAAAEAESExQXGR/9oACAEBAAE/EBjtjcC2rQd+SuXZYpxELyQoUFiXohFo7DX2Kvc//9k=","width":320,"height":320,"src":"/static/6c72a52042fa8bad71e5e927ca2d86d6/163a5/thumbnail.jpg","srcSet":"/static/6c72a52042fa8bad71e5e927ca2d86d6/163a5/thumbnail.jpg 1x,\n/static/6c72a52042fa8bad71e5e927ca2d86d6/0e607/thumbnail.jpg 1.5x,\n/static/6c72a52042fa8bad71e5e927ca2d86d6/88783/thumbnail.jpg 2x"},"fluid":{"base64":"data:image/jpeg;base64,/9j/2wBDABALDA4MChAODQ4SERATGCgaGBYWGDEjJR0oOjM9PDkzODdASFxOQERXRTc4UG1RV19iZ2hnPk1xeXBkeFxlZ2P/2wBDARESEhgVGC8aGi9jQjhCY2NjY2NjY2NjY2NjY2NjY2NjY2NjY2NjY2NjY2NjY2NjY2NjY2NjY2NjY2NjY2NjY2P/wgARCAALABQDASIAAhEBAxEB/8QAGAAAAgMAAAAAAAAAAAAAAAAAAAQBAwX/xAAWAQEBAQAAAAAAAAAAAAAAAAABAgP/2gAMAwEAAhADEAAAAb09lPSJFxP/xAAZEAADAAMAAAAAAAAAAAAAAAABAgMAETH/2gAIAQEAAQUCqW3ChezKm3Gcw9//xAAVEQEBAAAAAAAAAAAAAAAAAAAAEf/aAAgBAwEBPwFX/8QAFhEBAQEAAAAAAAAAAAAAAAAAAAER/9oACAECAQE/AYx//8QAGRAAAQUAAAAAAAAAAAAAAAAAAAISIDFh/9oACAEBAAY/AsGqqP8A/8QAGhABAQACAwAAAAAAAAAAAAAAAQARUSExQf/aAAgBAQABPyH100JkOJ1MWpBcATZ//9oADAMBAAIAAwAAABDH7//EABYRAQEBAAAAAAAAAAAAAAAAAAEREP/aAAgBAwEBPxBI3H//xAAXEQEBAQEAAAAAAAAAAAAAAAABABFh/9oACAECAQE/EFphHV//xAAbEAEBAQEAAwEAAAAAAAAAAAABEQAhMVFhcf/aAAgBAQABPxCpCPgaUlve8nvDUM/csqLli4+UJqnd/9k=","aspectRatio":1.8691588785046729,"src":"/static/6c72a52042fa8bad71e5e927ca2d86d6/14b42/thumbnail.jpg","srcSet":"/static/6c72a52042fa8bad71e5e927ca2d86d6/f836f/thumbnail.jpg 200w,\n/static/6c72a52042fa8bad71e5e927ca2d86d6/2244e/thumbnail.jpg 400w,\n/static/6c72a52042fa8bad71e5e927ca2d86d6/14b42/thumbnail.jpg 800w,\n/static/6c72a52042fa8bad71e5e927ca2d86d6/4e6cd/thumbnail.jpg 860w","sizes":"(max-width: 800px) 100vw, 800px"}}},"tags":["중력 구현하기","중력","Gravity","JavaScript","자바스크립트","WebGL","수학","ThreeJS","튜토리얼"],"date":"2017-05-06","categories":["프로그래밍","그래픽스"],"mainSection":null}}},{"node":{"excerpt":"이번 포스팅에서는 만유인력의 법칙을 이용하여 중력을 구현해보려고 한다. 지표면 상에서 한 방향으로 작용하는 중력이 아니라 랜덤한 질량을 가진 여러 개의 물체를 랜덤한 좌표에 뿌려놓고 서로의 운동에 어떻게 간섭하는 지를 살펴볼 수 있는 시뮬레이션을 만들어 볼 예정이다.","fields":{"slug":"20170506-gravity-via-js-1","path":"/2017/05/06/gravity-via-js-1/","lang":"ko"},"frontmatter":{"title":"[JavaScript로 중력 구현하기] 1. 중력이란 무엇일까?","thumbnail":{"childImageSharp":{"fixed":{"base64":"data:image/jpeg;base64,/9j/2wBDABALDA4MChAODQ4SERATGCgaGBYWGDEjJR0oOjM9PDkzODdASFxOQERXRTc4UG1RV19iZ2hnPk1xeXBkeFxlZ2P/2wBDARESEhgVGC8aGi9jQjhCY2NjY2NjY2NjY2NjY2NjY2NjY2NjY2NjY2NjY2NjY2NjY2NjY2NjY2NjY2NjY2NjY2P/wgARCAAUABQDASIAAhEBAxEB/8QAGAABAQEBAQAAAAAAAAAAAAAAAAMCBAX/xAAWAQEBAQAAAAAAAAAAAAAAAAACAwH/2gAMAwEAAhADEAAAAU88tZ+8oCnIWYCP/8QAGxAAAwACAwAAAAAAAAAAAAAAAQIDABMQERL/2gAIAQEAAQUCah6nUO2rLISkJts94Rz/AP/EABcRAQADAAAAAAAAAAAAAAAAAAABECH/2gAIAQMBAT8BYmv/xAAXEQADAQAAAAAAAAAAAAAAAAAAARAh/9oACAECAQE/AWaKf//EABkQAAMAAwAAAAAAAAAAAAAAAAABERAgUf/aAAgBAQAGPwKtkxBPmv8A/8QAGBABAQEBAQAAAAAAAAAAAAAAAQAREGH/2gAIAQEAAT8hAl4WKrvsbNlAiN4lNt//2gAMAwEAAgADAAAAED8wPf/EABYRAQEBAAAAAAAAAAAAAAAAAAERIP/aAAgBAwEBPxAiVwf/xAAYEQEBAAMAAAAAAAAAAAAAAAABEQAQIf/aAAgBAgEBPxCqAcy7P//EABsQAQACAwEBAAAAAAAAAAAAAAEAESExQXGR/9oACAEBAAE/EBjtjcC2rQd+SuXZYpxELyQoUFiXohFo7DX2Kvc//9k=","width":320,"height":320,"src":"/static/6c72a52042fa8bad71e5e927ca2d86d6/163a5/thumbnail.jpg","srcSet":"/static/6c72a52042fa8bad71e5e927ca2d86d6/163a5/thumbnail.jpg 1x,\n/static/6c72a52042fa8bad71e5e927ca2d86d6/0e607/thumbnail.jpg 1.5x,\n/static/6c72a52042fa8bad71e5e927ca2d86d6/88783/thumbnail.jpg 2x"},"fluid":{"base64":"data:image/jpeg;base64,/9j/2wBDABALDA4MChAODQ4SERATGCgaGBYWGDEjJR0oOjM9PDkzODdASFxOQERXRTc4UG1RV19iZ2hnPk1xeXBkeFxlZ2P/2wBDARESEhgVGC8aGi9jQjhCY2NjY2NjY2NjY2NjY2NjY2NjY2NjY2NjY2NjY2NjY2NjY2NjY2NjY2NjY2NjY2NjY2P/wgARCAALABQDASIAAhEBAxEB/8QAGAAAAgMAAAAAAAAAAAAAAAAAAAQBAwX/xAAWAQEBAQAAAAAAAAAAAAAAAAABAgP/2gAMAwEAAhADEAAAAb09lPSJFxP/xAAZEAADAAMAAAAAAAAAAAAAAAABAgMAETH/2gAIAQEAAQUCqW3ChezKm3Gcw9//xAAVEQEBAAAAAAAAAAAAAAAAAAAAEf/aAAgBAwEBPwFX/8QAFhEBAQEAAAAAAAAAAAAAAAAAAAER/9oACAECAQE/AYx//8QAGRAAAQUAAAAAAAAAAAAAAAAAAAISIDFh/9oACAEBAAY/AsGqqP8A/8QAGhABAQACAwAAAAAAAAAAAAAAAQARUSExQf/aAAgBAQABPyH100JkOJ1MWpBcATZ//9oADAMBAAIAAwAAABDH7//EABYRAQEBAAAAAAAAAAAAAAAAAAEREP/aAAgBAwEBPxBI3H//xAAXEQEBAQEAAAAAAAAAAAAAAAABABFh/9oACAECAQE/EFphHV//xAAbEAEBAQEAAwEAAAAAAAAAAAABEQAhMVFhcf/aAAgBAQABPxCpCPgaUlve8nvDUM/csqLli4+UJqnd/9k=","aspectRatio":1.8691588785046729,"src":"/static/6c72a52042fa8bad71e5e927ca2d86d6/14b42/thumbnail.jpg","srcSet":"/static/6c72a52042fa8bad71e5e927ca2d86d6/f836f/thumbnail.jpg 200w,\n/static/6c72a52042fa8bad71e5e927ca2d86d6/2244e/thumbnail.jpg 400w,\n/static/6c72a52042fa8bad71e5e927ca2d86d6/14b42/thumbnail.jpg 800w,\n/static/6c72a52042fa8bad71e5e927ca2d86d6/4e6cd/thumbnail.jpg 860w","sizes":"(max-width: 800px) 100vw, 800px"}}},"tags":["중력 구현하기","중력","Gravity","JavaScript","자바스크립트","WebGL","수학","ThreeJS","튜토리얼"],"date":"2017-05-06","categories":["프로그래밍","그래픽스"],"mainSection":null}}},{"node":{"excerpt":"이번 포스팅에서는 저번 포스팅에 이어 실제 궤도의 모양과 크기, 위치, 방향을 정의하고 JavaScript코드로 작성을 해보려고 한다. 실제 어플리케이션을 작성할 때는 TypeScript를 사용하였으나, 편의상 JavsScript ES6로 포스팅을 진행한다.","fields":{"slug":"20170503-calculate-orbit-2","path":"/2017/05/03/calculate-orbit-2/","lang":"ko"},"frontmatter":{"title":"[JavaScript로 천체 구현하기] 행성의 움직임을 구현해보자","thumbnail":{"childImageSharp":{"fixed":{"base64":"data:image/jpeg;base64,/9j/2wBDABALDA4MChAODQ4SERATGCgaGBYWGDEjJR0oOjM9PDkzODdASFxOQERXRTc4UG1RV19iZ2hnPk1xeXBkeFxlZ2P/2wBDARESEhgVGC8aGi9jQjhCY2NjY2NjY2NjY2NjY2NjY2NjY2NjY2NjY2NjY2NjY2NjY2NjY2NjY2NjY2NjY2NjY2P/wgARCAAUABQDASIAAhEBAxEB/8QAFwABAQEBAAAAAAAAAAAAAAAAAAECBf/EABUBAQEAAAAAAAAAAAAAAAAAAAAB/9oADAMBAAIQAxAAAAHk6WsCgID/xAAYEAACAwAAAAAAAAAAAAAAAAAAARARIP/aAAgBAQABBQIqEN5//8QAFBEBAAAAAAAAAAAAAAAAAAAAIP/aAAgBAwEBPwEf/8QAFBEBAAAAAAAAAAAAAAAAAAAAIP/aAAgBAgEBPwEf/8QAFBABAAAAAAAAAAAAAAAAAAAAMP/aAAgBAQAGPwIf/8QAHBAAAgICAwAAAAAAAAAAAAAAAREAIRAgMVFx/9oACAEBAAE/IQHOJsVhO1HXQ81//9oADAMBAAIAAwAAABC8ADz/xAAUEQEAAAAAAAAAAAAAAAAAAAAg/9oACAEDAQE/EB//xAAWEQADAAAAAAAAAAAAAAAAAAARICH/2gAIAQIBAT8QNT//xAAcEAEAAQQDAAAAAAAAAAAAAAABEQAhMVEQIHH/2gAIAQEAAT8QTCrlItrL5wUMzAtzLqpIiACBHX//2Q==","width":320,"height":320,"src":"/static/746a090a9954b09cea8d75079269697d/163a5/thumbnail.jpg","srcSet":"/static/746a090a9954b09cea8d75079269697d/163a5/thumbnail.jpg 1x,\n/static/746a090a9954b09cea8d75079269697d/0e607/thumbnail.jpg 1.5x,\n/static/746a090a9954b09cea8d75079269697d/88783/thumbnail.jpg 2x"},"fluid":{"base64":"data:image/jpeg;base64,/9j/2wBDABALDA4MChAODQ4SERATGCgaGBYWGDEjJR0oOjM9PDkzODdASFxOQERXRTc4UG1RV19iZ2hnPk1xeXBkeFxlZ2P/2wBDARESEhgVGC8aGi9jQjhCY2NjY2NjY2NjY2NjY2NjY2NjY2NjY2NjY2NjY2NjY2NjY2NjY2NjY2NjY2NjY2NjY2P/wgARCAAPABQDASIAAhEBAxEB/8QAFwABAQEBAAAAAAAAAAAAAAAAAAIBBf/EABUBAQEAAAAAAAAAAAAAAAAAAAAB/9oADAMBAAIQAxAAAAHk1O1Ir//EABYQAAMAAAAAAAAAAAAAAAAAAAARIP/aAAgBAQABBQIU/wD/xAAUEQEAAAAAAAAAAAAAAAAAAAAQ/9oACAEDAQE/AT//xAAUEQEAAAAAAAAAAAAAAAAAAAAQ/9oACAECAQE/AT//xAAUEAEAAAAAAAAAAAAAAAAAAAAg/9oACAEBAAY/Al//xAAYEAEAAwEAAAAAAAAAAAAAAAABABARQf/aAAgBAQABPyEjk7vKHGLX/9oADAMBAAIAAwAAABBrz//EABQRAQAAAAAAAAAAAAAAAAAAABD/2gAIAQMBAT8QP//EABURAQEAAAAAAAAAAAAAAAAAABAh/9oACAECAQE/EKf/xAAbEAEAAgIDAAAAAAAAAAAAAAABABEQITFRYf/aAAgBAQABPxAWwrmiBCcneKpofE0xUx//2Q==","aspectRatio":1.3333333333333333,"src":"/static/746a090a9954b09cea8d75079269697d/14b42/thumbnail.jpg","srcSet":"/static/746a090a9954b09cea8d75079269697d/f836f/thumbnail.jpg 200w,\n/static/746a090a9954b09cea8d75079269697d/2244e/thumbnail.jpg 400w,\n/static/746a090a9954b09cea8d75079269697d/14b42/thumbnail.jpg 800w,\n/static/746a090a9954b09cea8d75079269697d/47498/thumbnail.jpg 1200w,\n/static/746a090a9954b09cea8d75079269697d/0e329/thumbnail.jpg 1600w,\n/static/746a090a9954b09cea8d75079269697d/50587/thumbnail.jpg 2400w","sizes":"(max-width: 800px) 100vw, 800px"}}},"tags":["궤도 구현하기","케플러 궤도 방정식","케플러 6요소","JavaScript","자바스크립트","WebGL","ThreeJS","수학","튜토리얼"],"date":"2017-05-03","categories":["프로그래밍","그래픽스"],"mainSection":null}}},{"node":{"excerpt":"이번 포스팅에서는 태양계 시뮬레이션을 개발하면서 제일 애먹었던 천체의 궤도와 위치 계산에 대해서 알아보려고 한다. 필자는 고등학교 시절 수포자였기 대문에 필자와 같이 수포자였던 분들을 위해 최대한 간단하게 설명하는 것을 목표로 하고 있다.","fields":{"slug":"20170503-calculate-orbit-1","path":"/2017/05/03/calculate-orbit-1/","lang":"ko"},"frontmatter":{"title":"[JavaScript로 천체 구현하기] 케플러 6요소 알아보기","thumbnail":{"childImageSharp":{"fixed":{"base64":"data:image/jpeg;base64,/9j/2wBDABALDA4MChAODQ4SERATGCgaGBYWGDEjJR0oOjM9PDkzODdASFxOQERXRTc4UG1RV19iZ2hnPk1xeXBkeFxlZ2P/2wBDARESEhgVGC8aGi9jQjhCY2NjY2NjY2NjY2NjY2NjY2NjY2NjY2NjY2NjY2NjY2NjY2NjY2NjY2NjY2NjY2NjY2P/wgARCAAUABQDASIAAhEBAxEB/8QAFwABAQEBAAAAAAAAAAAAAAAAAAECBf/EABUBAQEAAAAAAAAAAAAAAAAAAAAB/9oADAMBAAIQAxAAAAHk6WsCgID/xAAYEAACAwAAAAAAAAAAAAAAAAAAARARIP/aAAgBAQABBQIqEN5//8QAFBEBAAAAAAAAAAAAAAAAAAAAIP/aAAgBAwEBPwEf/8QAFBEBAAAAAAAAAAAAAAAAAAAAIP/aAAgBAgEBPwEf/8QAFBABAAAAAAAAAAAAAAAAAAAAMP/aAAgBAQAGPwIf/8QAHBAAAgICAwAAAAAAAAAAAAAAAREAIRAgMVFx/9oACAEBAAE/IQHOJsVhO1HXQ81//9oADAMBAAIAAwAAABC8ADz/xAAUEQEAAAAAAAAAAAAAAAAAAAAg/9oACAEDAQE/EB//xAAWEQADAAAAAAAAAAAAAAAAAAARICH/2gAIAQIBAT8QNT//xAAcEAEAAQQDAAAAAAAAAAAAAAABEQAhMVEQIHH/2gAIAQEAAT8QTCrlItrL5wUMzAtzLqpIiACBHX//2Q==","width":320,"height":320,"src":"/static/746a090a9954b09cea8d75079269697d/163a5/thumbnail.jpg","srcSet":"/static/746a090a9954b09cea8d75079269697d/163a5/thumbnail.jpg 1x,\n/static/746a090a9954b09cea8d75079269697d/0e607/thumbnail.jpg 1.5x,\n/static/746a090a9954b09cea8d75079269697d/88783/thumbnail.jpg 2x"},"fluid":{"base64":"data:image/jpeg;base64,/9j/2wBDABALDA4MChAODQ4SERATGCgaGBYWGDEjJR0oOjM9PDkzODdASFxOQERXRTc4UG1RV19iZ2hnPk1xeXBkeFxlZ2P/2wBDARESEhgVGC8aGi9jQjhCY2NjY2NjY2NjY2NjY2NjY2NjY2NjY2NjY2NjY2NjY2NjY2NjY2NjY2NjY2NjY2NjY2P/wgARCAAPABQDASIAAhEBAxEB/8QAFwABAQEBAAAAAAAAAAAAAAAAAAIBBf/EABUBAQEAAAAAAAAAAAAAAAAAAAAB/9oADAMBAAIQAxAAAAHk1O1Ir//EABYQAAMAAAAAAAAAAAAAAAAAAAARIP/aAAgBAQABBQIU/wD/xAAUEQEAAAAAAAAAAAAAAAAAAAAQ/9oACAEDAQE/AT//xAAUEQEAAAAAAAAAAAAAAAAAAAAQ/9oACAECAQE/AT//xAAUEAEAAAAAAAAAAAAAAAAAAAAg/9oACAEBAAY/Al//xAAYEAEAAwEAAAAAAAAAAAAAAAABABARQf/aAAgBAQABPyEjk7vKHGLX/9oADAMBAAIAAwAAABBrz//EABQRAQAAAAAAAAAAAAAAAAAAABD/2gAIAQMBAT8QP//EABURAQEAAAAAAAAAAAAAAAAAABAh/9oACAECAQE/EKf/xAAbEAEAAgIDAAAAAAAAAAAAAAABABEQITFRYf/aAAgBAQABPxAWwrmiBCcneKpofE0xUx//2Q==","aspectRatio":1.3333333333333333,"src":"/static/746a090a9954b09cea8d75079269697d/14b42/thumbnail.jpg","srcSet":"/static/746a090a9954b09cea8d75079269697d/f836f/thumbnail.jpg 200w,\n/static/746a090a9954b09cea8d75079269697d/2244e/thumbnail.jpg 400w,\n/static/746a090a9954b09cea8d75079269697d/14b42/thumbnail.jpg 800w,\n/static/746a090a9954b09cea8d75079269697d/47498/thumbnail.jpg 1200w,\n/static/746a090a9954b09cea8d75079269697d/0e329/thumbnail.jpg 1600w,\n/static/746a090a9954b09cea8d75079269697d/50587/thumbnail.jpg 2400w","sizes":"(max-width: 800px) 100vw, 800px"}}},"tags":["궤도 구현하기","케플러 궤도 방정식","케플러 6요소","JavaScript","자바스크립트","WebGL","ThreeJS","튜토리얼"],"date":"2017-05-03","categories":["프로그래밍","그래픽스"],"mainSection":null}}}],"pageInfo":{"currentPage":6,"pageCount":6}}},"pageContext":{"limit":15,"skip":75,"lang":"ko","totalCount":79}}}