{"componentChunkName":"component---src-templates-posts-page-template-tsx","path":"/posts/","result":{"data":{"allMarkdownRemark":{"edges":[{"node":{"excerpt":"필자는 지난 불규칙 속에서 규칙을 찾아내는 정규표현식 포스팅에서 정규식의 기본적인 사용 방법을 한 차례 설명한 바 있다. 그러나 아무리 정규식의 기본적인 사용 방법을 알고 있다고 해도 실제로 정규식을 사용해야하는 상황이 되면 눈 앞이 깜깜해지기 마련이다.","fields":{"slug":"/20200815-regex-example/","path":"/2020/08/15/regex-example/","lang":"ko"},"frontmatter":{"date":"2020-09-15","title":"정규식은 어떻게 사용되는 것일까?","categories":["Programming"],"thumbnail":{"childImageSharp":{"fluid":{"base64":"data:image/png;base64,iVBORw0KGgoAAAANSUhEUgAAABQAAAALCAIAAADwazoUAAAACXBIWXMAAAsSAAALEgHS3X78AAAAh0lEQVQoz2P4TwFgGEya//37B8L//v/9B+L8//v3HwwQa/PPD2++vHz28+Xd3+8eE7YZYvDTp09OnTr1+vWbL8envt1Y+GZDwdfT8+/fu3fmzNmnT5/ClWHX/OLFi6tXr75+/frn3QNfzq8Aoh93Drx88eLOnTv37t3DqZmaAYYmghlaAxrPAKNFhuy5XoawAAAAAElFTkSuQmCC","aspectRatio":1.7699115044247788,"src":"/static/c9a689e73a6e0677baa07d0624c6b5c1/ee604/thumbnail.png","srcSet":"/static/c9a689e73a6e0677baa07d0624c6b5c1/69585/thumbnail.png 200w,\n/static/c9a689e73a6e0677baa07d0624c6b5c1/497c6/thumbnail.png 400w,\n/static/c9a689e73a6e0677baa07d0624c6b5c1/ee604/thumbnail.png 800w,\n/static/c9a689e73a6e0677baa07d0624c6b5c1/f3583/thumbnail.png 1200w,\n/static/c9a689e73a6e0677baa07d0624c6b5c1/5707d/thumbnail.png 1600w,\n/static/c9a689e73a6e0677baa07d0624c6b5c1/eeb1b/thumbnail.png 1920w","sizes":"(max-width: 800px) 100vw, 800px"}}},"tags":["정규식","정규표현식","Regexp","Regular Expression","숫자만 골라내기","Lookahead","전방탐색","Lookbehind","후방탐색","Lookaround","캡쳐링"]}}},{"node":{"excerpt":"개발자들은 자연어로 주어지는 문제 상황을 파악하고 프로그램을 설계하고 작성하는 사람들이다. 이런 업무를 수행하기 위해 개발자들은 불규칙하게 쏟아지는 정보들 속에서 필요한 부분들을 걸러내거나 무분별하게 선언된 클래스나 변수들을 추상화하는 등의 업무를 수행하게 된다.","fields":{"slug":"/20200724-about-regular-expression/","path":"/2020/07/24/about-regular-expression/","lang":"ko"},"frontmatter":{"date":"2020-08-10","title":"불규칙 속에서 규칙을 찾아내는 정규표현식","categories":["프로그래밍","튜토리얼"],"thumbnail":{"childImageSharp":{"fluid":{"base64":"data:image/png;base64,iVBORw0KGgoAAAANSUhEUgAAABQAAAALCAIAAADwazoUAAAACXBIWXMAAAsSAAALEgHS3X78AAAAh0lEQVQoz2P4TwFgGEya//37B8L//v/9B+L8//v3HwwQa/PPD2++vHz28+Xd3+8eE7YZYvDTp09OnTr1+vWbL8envt1Y+GZDwdfT8+/fu3fmzNmnT5/ClWHX/OLFi6tXr75+/frn3QNfzq8Aoh93Drx88eLOnTv37t3DqZmaAYYmghlaAxrPAKNFhuy5XoawAAAAAElFTkSuQmCC","aspectRatio":1.7699115044247788,"src":"/static/c9a689e73a6e0677baa07d0624c6b5c1/ee604/thumbnail.png","srcSet":"/static/c9a689e73a6e0677baa07d0624c6b5c1/69585/thumbnail.png 200w,\n/static/c9a689e73a6e0677baa07d0624c6b5c1/497c6/thumbnail.png 400w,\n/static/c9a689e73a6e0677baa07d0624c6b5c1/ee604/thumbnail.png 800w,\n/static/c9a689e73a6e0677baa07d0624c6b5c1/f3583/thumbnail.png 1200w,\n/static/c9a689e73a6e0677baa07d0624c6b5c1/5707d/thumbnail.png 1600w,\n/static/c9a689e73a6e0677baa07d0624c6b5c1/eeb1b/thumbnail.png 1920w","sizes":"(max-width: 800px) 100vw, 800px"}}},"tags":["정규식","정규표현식","Regexp","Regular Expression","캐릭터 클래스","Character Class","Anchor","앵커","캡쳐링","Capturing Group","Greedy","Lazy"]}}},{"node":{"excerpt":"필자는 친구들과 함께 하고 있는 루비콘이라는 팀에서 토이 프로젝트 멘토링을 재능 기부 형식으로 진행하고 있는데, 많은 분들이 도대체 돈도 안 받으면서 왜 이런 프로젝트를 왜 진행하는지, 얻고자 하는 것이 무엇인지에 대해 많이 물어보셔서 그에 대한 필자의 생각을 적어보려고 한다.","fields":{"slug":"/20200620-the-importance-of-sharing/","path":"/2020/06/20/the-importance-of-sharing/","lang":"ko"},"frontmatter":{"date":"2020-07-07","title":"내가 토이 프로젝트 경험을 공유하는 이유","categories":["에세이"],"thumbnail":{"childImageSharp":{"fluid":{"base64":"data:image/jpeg;base64,/9j/2wBDABALDA4MChAODQ4SERATGCgaGBYWGDEjJR0oOjM9PDkzODdASFxOQERXRTc4UG1RV19iZ2hnPk1xeXBkeFxlZ2P/2wBDARESEhgVGC8aGi9jQjhCY2NjY2NjY2NjY2NjY2NjY2NjY2NjY2NjY2NjY2NjY2NjY2NjY2NjY2NjY2NjY2NjY2P/wgARCAALABQDASIAAhEBAxEB/8QAFwAAAwEAAAAAAAAAAAAAAAAAAAMFBP/EABYBAQEBAAAAAAAAAAAAAAAAAAIAA//aAAwDAQACEAMQAAABaitOGrDcQ//EABkQAAMBAQEAAAAAAAAAAAAAAAABAgMTQv/aAAgBAQABBQKqdE6I5zR5xSqj/8QAFhEBAQEAAAAAAAAAAAAAAAAAABES/9oACAEDAQE/AdI//8QAGBEAAgMAAAAAAAAAAAAAAAAAAAEREiH/2gAIAQIBAT8BrhKP/8QAGRAAAgMBAAAAAAAAAAAAAAAAAAECEBET/9oACAEBAAY/AlzZkkaMltf/xAAbEAEAAwADAQAAAAAAAAAAAAABABEhQVFhcf/aAAgBAQABPyEKh7CLZb1nzWUZAZ1BM3xGf//aAAwDAQACAAMAAAAQyA//xAAWEQEBAQAAAAAAAAAAAAAAAAARARD/2gAIAQMBAT8QgXH/xAAXEQADAQAAAAAAAAAAAAAAAAAAARFB/9oACAECAQE/EJcEMP/EABwQAQACAwADAAAAAAAAAAAAAAEAIRFBUTFx0f/aAAgBAQABPxBi36PJlhKBbHo9jhChEORGhk0CEBLtzB8i8ep//9k=","aspectRatio":1.8018018018018018,"src":"/static/fe307168d650bfba3636e2cdae7d20c1/14b42/thumbnail.jpg","srcSet":"/static/fe307168d650bfba3636e2cdae7d20c1/f836f/thumbnail.jpg 200w,\n/static/fe307168d650bfba3636e2cdae7d20c1/2244e/thumbnail.jpg 400w,\n/static/fe307168d650bfba3636e2cdae7d20c1/14b42/thumbnail.jpg 800w,\n/static/fe307168d650bfba3636e2cdae7d20c1/bf4a0/thumbnail.jpg 949w","sizes":"(max-width: 800px) 100vw, 800px"}}},"tags":["공유","개발자","소프트스킬","토이프로젝트"]}}},{"node":{"excerpt":"이번 포스팅에서는 웹 개발자라면 한번쯤은 얻어맞아 봤을 법한  정책에 대한 이야기를 해보려고 한다. 사실 웹 개발을 하다보면 CORS 정책 위반으로 인해 에러가 발생하는 상황은 굉장히 흔해서 누구나 한 번 정도는 겪게 된다고 해도 과언이 아니다.","fields":{"slug":"/20200521-about-cors/","path":"/2020/05/21/about-cors/","lang":"ko"},"frontmatter":{"date":"2020-05-21","title":"CORS는 왜 이렇게 우리를 힘들게 하는걸까?","categories":["프로그래밍","네트워크","웹"],"thumbnail":{"childImageSharp":{"fluid":{"base64":"data:image/png;base64,iVBORw0KGgoAAAANSUhEUgAAABQAAAALCAIAAADwazoUAAAACXBIWXMAAAsSAAALEgHS3X78AAABCUlEQVQoz42RPU/DMBCG+1NhhQFE+Quwwgw0BBZYGNIZxEdsVNFCqACpSlNQ3TQ+RxhDoyYmIIMrGKKGkljP4Du/j04nV3YxZDEwbNuwdRHkoAaCqXAlW9QwO2wMW53+HRH3GR4Gov30fNAIamiGbGLYsaHuMKU+v3JHKVV3Qh0w/5EtJ5RSJnE8jpOI0jFjiZSTIk6sMrKIolAIeOGd4JFAj49GlHP+9mrdsGI5JSR13dTrvXvd1NMX78Pt6mbxZL1zuLnhLy4MV6sTqiv+8lJ/fg7W14p2RnDUYn6zTU5scnb5yykmx+eDq1v9pAPmrK/6Ya/J96/FFLqZT/4hG4gadg5ES8nl+QY9/Qtcw8ktiAAAAABJRU5ErkJggg==","aspectRatio":1.7699115044247788,"src":"/static/e21f60bac8f04efc2928f1d0504fd95f/ee604/thumbnail.png","srcSet":"/static/e21f60bac8f04efc2928f1d0504fd95f/69585/thumbnail.png 200w,\n/static/e21f60bac8f04efc2928f1d0504fd95f/497c6/thumbnail.png 400w,\n/static/e21f60bac8f04efc2928f1d0504fd95f/ee604/thumbnail.png 800w,\n/static/e21f60bac8f04efc2928f1d0504fd95f/f3583/thumbnail.png 1200w,\n/static/e21f60bac8f04efc2928f1d0504fd95f/5707d/thumbnail.png 1600w,\n/static/e21f60bac8f04efc2928f1d0504fd95f/eeb1b/thumbnail.png 1920w","sizes":"(max-width: 800px) 100vw, 800px"}}},"tags":["CORS","Cross-Origin Resource Sharing","교차 출처 리소스 공유","네트워크","Web","보안 정책"]}}},{"node":{"excerpt":"필자는 지난 황금 연휴 동안 기존에 를 사용하여 만들었던 블로그를 로 마이그레이션했다. 이번 포스팅에서는 1주일 조금 넘게 마이그레이션을 진행하면서 새롭게 학습했던 것들에 대한 공유와 더불어 의외로 예상하지 못했던 이슈들에 대한 공유를 진행해볼까 한다.","fields":{"slug":"/20200509-gatsby-migration-retrospective/","path":"/2020/05/09/gatsby-migration-retrospective/","lang":"ko"},"frontmatter":{"date":"2020-05-09","title":"Hexo에서 Gatsby로 블로그 마이그레이션 야크쉐이빙 후기","categories":["프로그래밍","튜토리얼"],"thumbnail":{"childImageSharp":{"fluid":{"base64":"data:image/png;base64,iVBORw0KGgoAAAANSUhEUgAAABQAAAALCAIAAADwazoUAAAACXBIWXMAAAsSAAALEgHS3X78AAABJklEQVQoz2P4TwFgQOP/+ff/3z8s6v79+/f37z80KYTmf2AEZ8M1EbYZouT777+Lzr85/fQrin4weHj99cVDDz69/YZsIANc3btvv6NX35VoO6c58dKSi2+BIr+///h+/wGQcenwwwlZW7uSN07O3/7m+WeIL6Ca/4J1n3v61Wza1WknXyatuZ28/cXfo4euGBpdFBf/dPT4+rmXu5I2pBrNaI1Ze2zLTZCWPzDNEGc8+vDTfs51k2lXtCdeajv66v+712/Xb3gxYcK/D+/2rLy2fsrJCdlbpxXvfHDtFUjL339Ifgbrv/vuR8bGB3POvIb7CsL49O77nmWX1k48cW7vfXxRhRw5///+BSFYVP35/RdfPIPU/4O4CM0gqBPQIpqBkhQGAE5XZfX8HFa8AAAAAElFTkSuQmCC","aspectRatio":1.7699115044247788,"src":"/static/8e1cc1a52ffd263af7247d9f38008f4c/ee604/thumbnail.png","srcSet":"/static/8e1cc1a52ffd263af7247d9f38008f4c/69585/thumbnail.png 200w,\n/static/8e1cc1a52ffd263af7247d9f38008f4c/497c6/thumbnail.png 400w,\n/static/8e1cc1a52ffd263af7247d9f38008f4c/ee604/thumbnail.png 800w,\n/static/8e1cc1a52ffd263af7247d9f38008f4c/f3583/thumbnail.png 1200w,\n/static/8e1cc1a52ffd263af7247d9f38008f4c/5707d/thumbnail.png 1600w,\n/static/8e1cc1a52ffd263af7247d9f38008f4c/eeb1b/thumbnail.png 1920w","sizes":"(max-width: 800px) 100vw, 800px"}}},"tags":["Gatsby","Hexo","마이그레이션","개발자","회고록"]}}},{"node":{"excerpt":"Google Tag Manager, 통칭 GTM은 지난 2012년에 출시된 인터넷 인터페이스 상에서의 웹 분석, 광고 성과 측정, 제휴 마케팅 추적 등 다양한 태그를 관리할 수 있는 구글의 이벤트 트래킹 솔루션 중 하나이다. 필자는 이전 직장에서 Google Analytics나 Segment와 같은 이벤트 트래킹 솔루션을 사용하고 있었는데, 물론 이런 툴만으로도 원하는 유저 행동 데이터를 수집하기에 큰 어려움은 없었지만 이 툴들의 단점은 PO나 마케터나 원하는 행동 데이터를 추가로 추적하고 싶을 때마다 개발자에게 코드를 심어달라고 요청해야 한다는 것이다.","fields":{"slug":"/20200419-what-is-gtm-google-tag-manager/","path":"/2020/04/19/what-is-gtm-google-tag-manager/","lang":"ko"},"frontmatter":{"date":"2020-04-19","title":"GTM, Google Tag Manager 뜯어보기","categories":["소프트스킬","튜토리얼"],"thumbnail":{"childImageSharp":{"fluid":{"base64":"data:image/png;base64,iVBORw0KGgoAAAANSUhEUgAAABQAAAALCAIAAADwazoUAAAACXBIWXMAAAsSAAALEgHS3X78AAAAzElEQVQoz5VRPQvCMBDtb/cHuLgKDq6OgqhIcRFB8AMKghTdHFykjWm8Xu5i0lrp0Nb2EcJxvJf37uKZGjAb4i/qOF5lVyklpYhf0kKIGCDtILbGcUJDH3ZXdCFqzCvEOVGlPJjLbZj+Ou3EzFprw6QANVm4q43YejAh5GxAuzPXRUQXnRrE2WD6ccbLKJPAYrP2g7etiOl+gHCGhI2xo2kPjn1byPTpB5PlydFtkP1Y3Fa6KTZr5CQyxfvlPWlwp+VXFYNweaZO4n/4ANTbh0U4968uAAAAAElFTkSuQmCC","aspectRatio":1.7699115044247788,"src":"/static/561462d8d0ace59b85f8ccc66260a39b/ee604/thumbnail.png","srcSet":"/static/561462d8d0ace59b85f8ccc66260a39b/69585/thumbnail.png 200w,\n/static/561462d8d0ace59b85f8ccc66260a39b/497c6/thumbnail.png 400w,\n/static/561462d8d0ace59b85f8ccc66260a39b/ee604/thumbnail.png 800w,\n/static/561462d8d0ace59b85f8ccc66260a39b/f3583/thumbnail.png 1200w,\n/static/561462d8d0ace59b85f8ccc66260a39b/5707d/thumbnail.png 1600w,\n/static/561462d8d0ace59b85f8ccc66260a39b/eeb1b/thumbnail.png 1920w","sizes":"(max-width: 800px) 100vw, 800px"}}},"tags":["GTM","Google Tag Manager","Google Analytics"]}}},{"node":{"excerpt":"이번 포스팅에서는 프론트엔드 개발자와 백엔드 개발자가 만나는 지점인 API에 대한 이야기를 해보려고한다. 일반적으로 앱이나 웹 상에서 작동하는 어플리케이션을 개발할 때는 주로 HTTP나 HTTPS 프로토콜을 사용하여 API를 만들게 되는데, 이 API의 정의가 얼마나 직관적이고 명확하냐에 따라 프로젝트의 복잡도가 크게 낮아지게 될 만큼 시스템 설계에 있어서 꽤나 중요한 자리를 차지하고 있다.","fields":{"slug":"/20200407-about-restful-api/","path":"/2020/04/07/about-restful-api/","lang":"ko"},"frontmatter":{"date":"2020-04-07","title":"프론트엔드와 백엔드가 소통하는 엔드포인트, RESTful API","categories":["프로그래밍","네트워크","아키텍처"],"thumbnail":{"childImageSharp":{"fluid":{"base64":"data:image/png;base64,iVBORw0KGgoAAAANSUhEUgAAABQAAAALCAIAAADwazoUAAAACXBIWXMAAAsSAAALEgHS3X78AAAAg0lEQVQoz2P4TwFgGCaa//z59/s3BP358ePP37//wODHjx+/fv3CrfnfPyDx5fTptytXfjx48NuhQw/27Ttx6tSjR4/Wrl27dOnSc+fOEbD598uX3y5e/H716o87d749ffrs6dNPnz49efLkzZs33759+we2gHYBBjQe1QaItwdTVAEA+UCIF86QSj4AAAAASUVORK5CYII=","aspectRatio":1.7699115044247788,"src":"/static/eba52764a4c3657fcab1149679dc258c/ee604/thumbnail.png","srcSet":"/static/eba52764a4c3657fcab1149679dc258c/69585/thumbnail.png 200w,\n/static/eba52764a4c3657fcab1149679dc258c/497c6/thumbnail.png 400w,\n/static/eba52764a4c3657fcab1149679dc258c/ee604/thumbnail.png 800w,\n/static/eba52764a4c3657fcab1149679dc258c/f3583/thumbnail.png 1200w,\n/static/eba52764a4c3657fcab1149679dc258c/5707d/thumbnail.png 1600w,\n/static/eba52764a4c3657fcab1149679dc258c/eeb1b/thumbnail.png 1920w","sizes":"(max-width: 800px) 100vw, 800px"}}},"tags":["REST","REST API","RESTful API","HTTP 메소드","네트워크"]}}},{"node":{"excerpt":"최근의 모던 어플리케이션은 완전히 네트워크 위에서 돌아가는 프로그램이라고 해도 과언이 아닐 정도로 프로그램의 비즈니스 로직에서 통신이 차지하는 비중이 높다. 클라이언트 어플리케이션은 백엔드에 위치한 서버와 통신하여 현재 로그인한 사용자의 정보를 받아오거나, 새로운 게시글을 생성하기도 하고, 때로는 Web Socket을 통해 서버에서 발생한 이벤트를 구독하여 푸시 메세지나 채팅과 같은 기능을 구현하기도 한다.","fields":{"slug":"/20200315-about-http-status-code/","path":"/2020/03/15/about-http-status-code/","lang":"ko"},"frontmatter":{"date":"2020-03-15","title":"서버의 상태를 알려주는 HTTP 상태 코드","categories":["프로그래밍","네트워크"],"thumbnail":{"childImageSharp":{"fluid":{"base64":"data:image/png;base64,iVBORw0KGgoAAAANSUhEUgAAABQAAAALCAIAAADwazoUAAAACXBIWXMAAAsSAAALEgHS3X78AAAA9ElEQVQoz52S3WrCMBiGvZjdwq5UmOxIqNuZzANHB07Y2A+sTEedW7LkS5omMTZNq9ewVGEITgnCc5I370M+PtICXZ5Maz9i2m3JTM1N9XcMkX3PCxVVVYqzTyJA19sE9vyDMldmgs0UG6FMuFyyRc1k+TOI5KydpV10EzFlfRg4tgOqVD+Sz2fo/jzpXFCQIS9bWK4yzEU8nI8f7dMljzuv/UF+N+QI/FVTOCgrC8WavKfpVe9hNJ68zZOX6eg2nl33vpIPVqybwvGxqXRYFIjKb1CIaQwaC0ukC9o2qJLkSyKMh24geeHDoG03LDxuh/9/2C82+jx5smFQsAAAAABJRU5ErkJggg==","aspectRatio":1.7699115044247788,"src":"/static/14576b0c5dc2ed40f94b7160f16c1e06/ee604/thumbnail.png","srcSet":"/static/14576b0c5dc2ed40f94b7160f16c1e06/69585/thumbnail.png 200w,\n/static/14576b0c5dc2ed40f94b7160f16c1e06/497c6/thumbnail.png 400w,\n/static/14576b0c5dc2ed40f94b7160f16c1e06/ee604/thumbnail.png 800w,\n/static/14576b0c5dc2ed40f94b7160f16c1e06/f3583/thumbnail.png 1200w,\n/static/14576b0c5dc2ed40f94b7160f16c1e06/5707d/thumbnail.png 1600w,\n/static/14576b0c5dc2ed40f94b7160f16c1e06/eeb1b/thumbnail.png 1920w","sizes":"(max-width: 800px) 100vw, 800px"}}},"tags":["HTTP","HTTP 상태코드","네트워크"]}}},{"node":{"excerpt":"이번 포스팅에서는 개발보다는 약간 철학적인 고민 이야기를 해보려고 한다. 사실 이 고민은 필자가 처음 개발을 시작할 때부터 가지고 있던 고민인데, 아직도 해답을 찾지 못했던 질문이기에, 이번 포스팅은 필자의 생각을 제시하는 것이 아니라 질문을 던지는 느낌으로 끄적여볼까한다. 필자가 개발을 시작하고 나서 6년 동안이나 하고 있는 이 고민은 바로 “안다는 것은 무엇인가?”이다.","fields":{"slug":"/20200302-what-is-knowing/","path":"/2020/03/02/what-is-knowing/","lang":"ko"},"frontmatter":{"date":"2020-03-02","title":"나는 프론트엔드를 안다고 말할 수 있을까?","categories":["에세이"],"thumbnail":{"childImageSharp":{"fluid":{"base64":"data:image/jpeg;base64,/9j/2wBDABALDA4MChAODQ4SERATGCgaGBYWGDEjJR0oOjM9PDkzODdASFxOQERXRTc4UG1RV19iZ2hnPk1xeXBkeFxlZ2P/2wBDARESEhgVGC8aGi9jQjhCY2NjY2NjY2NjY2NjY2NjY2NjY2NjY2NjY2NjY2NjY2NjY2NjY2NjY2NjY2NjY2NjY2P/wgARCAANABQDASIAAhEBAxEB/8QAGAAAAgMAAAAAAAAAAAAAAAAAAAQBAgX/xAAWAQEBAQAAAAAAAAAAAAAAAAAEAAH/2gAMAwEAAhADEAAAAX1X8uyCwo//xAAcEAABAwUAAAAAAAAAAAAAAAAAAQMRAgQQISL/2gAIAQEAAQUCfSRyKcLoueHT/8QAFhEBAQEAAAAAAAAAAAAAAAAAAhAR/9oACAEDAQE/AUdn/8QAFhEBAQEAAAAAAAAAAAAAAAAAAhAR/9oACAECAQE/ASsn/8QAGhAAAgIDAAAAAAAAAAAAAAAAAhAAEQESIf/aAAgBAQAGPwLFQR5b2X//xAAaEAEBAAMBAQAAAAAAAAAAAAABEQAQIVFh/9oACAEBAAE/IVJxcIIr90+nzFGBs5r/2gAMAwEAAgADAAAAEDcP/8QAFxEBAAMAAAAAAAAAAAAAAAAAARARUf/aAAgBAwEBPxALOx//xAAXEQADAQAAAAAAAAAAAAAAAAAAARFB/9oACAECAQE/EGwsRT//xAAbEAEAAwEAAwAAAAAAAAAAAAABABEhMVFxof/aAAgBAQABPxAKrbX5DpEQ7FTzOnH3CwaIsoBKuBk//9k=","aspectRatio":1.5037593984962405,"src":"/static/01651ff1530f3840f5386254eb51c6b2/14b42/thumbnail.jpg","srcSet":"/static/01651ff1530f3840f5386254eb51c6b2/f836f/thumbnail.jpg 200w,\n/static/01651ff1530f3840f5386254eb51c6b2/2244e/thumbnail.jpg 400w,\n/static/01651ff1530f3840f5386254eb51c6b2/14b42/thumbnail.jpg 800w,\n/static/01651ff1530f3840f5386254eb51c6b2/47498/thumbnail.jpg 1200w,\n/static/01651ff1530f3840f5386254eb51c6b2/0e329/thumbnail.jpg 1600w,\n/static/01651ff1530f3840f5386254eb51c6b2/c033a/thumbnail.jpg 4288w","sizes":"(max-width: 800px) 100vw, 800px"}}},"tags":["소크라테스","철학","앎이란","프로페셔널","개발자","공부"]}}},{"node":{"excerpt":"처음 프로그래밍을 배우던 시절을 떠올려보자. 아닌 사람도 있겠지만 대부분의 사람들은 처음 프로그래밍을 배울 때 학교나 학원에서 누군가에게 가르침을 받으며 공부했을 것이다. 프로그래밍을 처음 접하는 입문자에게 독학의 길은 너무 멀고 험난하기 때문이다.","fields":{"slug":"/20200211-question-driven-thinking/","path":"/2020/02/11/question-driven-thinking/","lang":"ko"},"frontmatter":{"date":"2020-02-11","title":"Question Driven Thinking - 스스로 질문하며 학습하기","categories":["에세이"],"thumbnail":{"childImageSharp":{"fluid":{"base64":"data:image/jpeg;base64,/9j/2wBDABALDA4MChAODQ4SERATGCgaGBYWGDEjJR0oOjM9PDkzODdASFxOQERXRTc4UG1RV19iZ2hnPk1xeXBkeFxlZ2P/2wBDARESEhgVGC8aGi9jQjhCY2NjY2NjY2NjY2NjY2NjY2NjY2NjY2NjY2NjY2NjY2NjY2NjY2NjY2NjY2NjY2NjY2P/wgARCAALABQDASIAAhEBAxEB/8QAFwAAAwEAAAAAAAAAAAAAAAAAAAQFAv/EABUBAQEAAAAAAAAAAAAAAAAAAAEA/9oADAMBAAIQAxAAAAGdZjtjgTI//8QAHBAAAQMFAAAAAAAAAAAAAAAAAQACAxESIjEy/9oACAEBAAEFAhuBgtkOUaondf/EABQRAQAAAAAAAAAAAAAAAAAAABD/2gAIAQMBAT8BP//EABQRAQAAAAAAAAAAAAAAAAAAABD/2gAIAQIBAT8BP//EABoQAAICAwAAAAAAAAAAAAAAAAAQASERQZH/2gAIAQEABj8CNTfCllf/xAAaEAACAwEBAAAAAAAAAAAAAAABEQAhQRBR/9oACAEBAAE/IbgIQ6eh9gIPGcoXqHaf/9oADAMBAAIAAwAAABAj/wD/xAAWEQEBAQAAAAAAAAAAAAAAAAAAEUH/2gAIAQMBAT8QxX//xAAWEQEBAQAAAAAAAAAAAAAAAAAAEUH/2gAIAQIBAT8Q1H//xAAbEAEAAgMBAQAAAAAAAAAAAAABABEhMXFBUf/aAAgBAQABPxBjN59qBSarVKNwbXbdRNwMhSMo1ffsbZP/2Q==","aspectRatio":1.9047619047619047,"src":"/static/21e0825bda72bb61f13b72c1ffbcadd0/14b42/thumbnail.jpg","srcSet":"/static/21e0825bda72bb61f13b72c1ffbcadd0/f836f/thumbnail.jpg 200w,\n/static/21e0825bda72bb61f13b72c1ffbcadd0/2244e/thumbnail.jpg 400w,\n/static/21e0825bda72bb61f13b72c1ffbcadd0/14b42/thumbnail.jpg 800w,\n/static/21e0825bda72bb61f13b72c1ffbcadd0/47498/thumbnail.jpg 1200w,\n/static/21e0825bda72bb61f13b72c1ffbcadd0/0e329/thumbnail.jpg 1600w,\n/static/21e0825bda72bb61f13b72c1ffbcadd0/50587/thumbnail.jpg 2400w","sizes":"(max-width: 800px) 100vw, 800px"}}},"tags":["질문의 힘","Question Driven Thinking","Question","질문","학습론","개발자","공부"]}}},{"node":{"excerpt":"함수형 프로그래밍에서 코드를 작성한다는 것은 프로그램에서 수행해야하는 여러가지 행위들을 함수로 표현하고, 또 그 함수들을 요리조리 잘 합성해가며 거대한 프로그램을 만들어나가는 패러다임이다. 결국 함수형 프로그래밍에서 함수를 합성하는 행위라는 것은 이 패러다임의 근간이 되는 개념이기 때문에 굉장히 큰 의미를 가질 수 밖에 없는데, 문제는 이렇게 함수를 합성하는 과정에서 크고 작은 현실적인 문제들이 빵빵 터진다는 것이다.","fields":{"slug":"/20200127-safety-function-composition/","path":"/2020/01/27/safety-function-composition/","lang":"ko"},"frontmatter":{"date":"2020-01-27","title":"어떻게 하면 안전하게 함수를 합성할 수 있을까?","categories":["프로그래밍","아키텍처"],"thumbnail":{"childImageSharp":{"fluid":{"base64":"data:image/png;base64,iVBORw0KGgoAAAANSUhEUgAAABQAAAALCAIAAADwazoUAAAACXBIWXMAAAsSAAALEgHS3X78AAAA9ElEQVQoz62RT0/CQBDF+bzyJTjrmSsfQm4mKsiJItptt2m0FFrpoex2S/8YF9jdxNcQD5pykJD8MnmZeW8OMx1GFmfTuVh4Yweb1wZmB5yEwlkCiKZ/BKOWsL3gdCnzStVSijKncUSd++fbh/kQYuvFaKrPnRQVbDD/CmOr8GOjdVGWWuvUDixr1B30rwb96fRxPfOVUtuygEH4EcytYSMPe2OM8D5ca/x00xtf9yA4jRDmWdYeBtwJ64R/pXm1Zpm7SogXTu5AQqhwV3XCdqxAhe3EwV7e0/kbarOLhBmNAcSf0YlXOT8cd5EAtI4u/ef/8g1CzTrI2o2pagAAAABJRU5ErkJggg==","aspectRatio":1.7699115044247788,"src":"/static/fe86b5bd480c2654850ae7a9ec8c4aa2/ee604/thumbnail1.png","srcSet":"/static/fe86b5bd480c2654850ae7a9ec8c4aa2/69585/thumbnail1.png 200w,\n/static/fe86b5bd480c2654850ae7a9ec8c4aa2/497c6/thumbnail1.png 400w,\n/static/fe86b5bd480c2654850ae7a9ec8c4aa2/ee604/thumbnail1.png 800w,\n/static/fe86b5bd480c2654850ae7a9ec8c4aa2/f3583/thumbnail1.png 1200w,\n/static/fe86b5bd480c2654850ae7a9ec8c4aa2/5707d/thumbnail1.png 1600w,\n/static/fe86b5bd480c2654850ae7a9ec8c4aa2/eeb1b/thumbnail1.png 1920w","sizes":"(max-width: 800px) 100vw, 800px"}}},"tags":["펑터","모나드","Functor","Monad","함수형 프로그래밍","Functional Programming","합성 함수","Composition","카테고리 이론","범주론"]}}},{"node":{"excerpt":"이번 포스팅에서는 순수 함수에 이어 함수형 프로그래밍에서 중요하게 여기는 개념인 에 대한 이야기를 해보려고 한다. 사실 순수 함수를 설명하다보면 불변성에 대한 이야기가 꼭 한번은 나오게 되는데, 대부분 “상태를 변경하지 않는 것”이라는 짧은 정의로 설명하거나, 혹은 불변성을 해치는 행위들을 예시로 들고 이런 행위들을 금지 행위로 규정하며 설명을 진행하게된다.","fields":{"slug":"/20200105-what-is-immutable/","path":"/2020/01/05/what-is-immutable/","lang":"ko"},"frontmatter":{"date":"2020-01-05","title":"변하지 않는 상태를 유지하는 방법, 불변성(Immutable)","categories":["프로그래밍","아키텍처"],"thumbnail":{"childImageSharp":{"fluid":{"base64":"data:image/png;base64,iVBORw0KGgoAAAANSUhEUgAAABQAAAALCAIAAADwazoUAAAACXBIWXMAAAsSAAALEgHS3X78AAAA80lEQVQoz2N4hw28f//+27dv38EAyABysSpjwKrz5cuXBw4c2LRp86bNm4EMIBerfnTNr1+//vnz56pVqxwdnYIC/QMD/G1t7ZYvX/7r1y+gFGHNv3//nj9/vqeXT0iAW1SgpY2l/rx584CChDW/efMG6M/du3fnZGfnFxUWFRfkZmfu2LEDKAiUIuznt2/ffvz48dvPny9u3Hh+/ca3X78/ffwIFCTsZ6CiDx8+3L9378z582d27jy5beuZ82eA3I8fsOjH4mxg3Ozdu7e+vr6ju6eppbGuumTP3r1AQaKcDXfC27dvoHGHQw1OzcQAijQDAG0ZQV5fh9rrAAAAAElFTkSuQmCC","aspectRatio":1.7699115044247788,"src":"/static/5015b01788f79d9bfd780840b41814f1/ee604/thumbnail.png","srcSet":"/static/5015b01788f79d9bfd780840b41814f1/69585/thumbnail.png 200w,\n/static/5015b01788f79d9bfd780840b41814f1/497c6/thumbnail.png 400w,\n/static/5015b01788f79d9bfd780840b41814f1/ee604/thumbnail.png 800w,\n/static/5015b01788f79d9bfd780840b41814f1/f3583/thumbnail.png 1200w,\n/static/5015b01788f79d9bfd780840b41814f1/5707d/thumbnail.png 1600w,\n/static/5015b01788f79d9bfd780840b41814f1/eeb1b/thumbnail.png 1920w","sizes":"(max-width: 800px) 100vw, 800px"}}},"tags":["함수형 프로그래밍","Functional Programming","순수 함수","불변성","Pure Functions","Immutable"]}}},{"node":{"excerpt":"이전에 작성했던 기존의 사고 방식을 깨부수는 함수형 사고 포스팅에 이어, 이번 포스팅에서는 함수형 프로그래밍이 지향하는 관점을 실제 프로그램에 구현하기 위해 알고 있어야하는 필수적인 개념 중 하나인 에 대한 이야기를 해볼까 한다.","fields":{"slug":"/20191229-about-pure-functions/","path":"/2019/12/29/about-pure-functions/","lang":"ko"},"frontmatter":{"date":"2019-12-29","title":"수학에서 기원한 프로그래밍 패러다임, 순수 함수","categories":["프로그래밍","아키텍처"],"thumbnail":{"childImageSharp":{"fluid":{"base64":"data:image/png;base64,iVBORw0KGgoAAAANSUhEUgAAABQAAAALCAIAAADwazoUAAAACXBIWXMAAAsSAAALEgHS3X78AAAAz0lEQVQoz5WSXwuDIBTF+2hamZZFUGQyVOhptf481MtgRGyw770LsTFy0DoPl6v4u0eOOp4l13Uxxt4fcmySUhpFESHkMAyeaZqepAyCAAYddg7DUAoBFZbEJ/5bOzCcwAgJIZrLxRijtVFaaa2rqsqyzA5iCyOEpJTP5XGfl+U2QzON43Qdy7IEeONvOWMMzkM/dG3XNk3fdvW5hhY2d+BVEBUEvlbIPOLcKBXH8c61v2NbBQDnXBYFo9TdTduekiRJlueMMe8o/PlwP9/8BQ1suPpGprwkAAAAAElFTkSuQmCC","aspectRatio":1.7699115044247788,"src":"/static/023de5bc6ce10c061b00421bd714ce0c/ee604/thumbnail.png","srcSet":"/static/023de5bc6ce10c061b00421bd714ce0c/69585/thumbnail.png 200w,\n/static/023de5bc6ce10c061b00421bd714ce0c/497c6/thumbnail.png 400w,\n/static/023de5bc6ce10c061b00421bd714ce0c/ee604/thumbnail.png 800w,\n/static/023de5bc6ce10c061b00421bd714ce0c/f3583/thumbnail.png 1200w,\n/static/023de5bc6ce10c061b00421bd714ce0c/5707d/thumbnail.png 1600w,\n/static/023de5bc6ce10c061b00421bd714ce0c/eeb1b/thumbnail.png 1920w","sizes":"(max-width: 800px) 100vw, 800px"}}},"tags":["함수형 프로그래밍","Functional Programming","순수 함수","사이드 이펙트","Pure Functions","Side Effects"]}}},{"node":{"excerpt":"이제 필자의 마지막 20대를 보내는 2019년도 어느덧 10일 정도 밖에 남지 않았다. 물론 서른이 된다고 해서 크게 달라지는 것은 없지만, 스무살이 되었을 때 이후 처음으로 나이 앞 자리가 바뀌는 만큼 기분이 싱숭생숭 하기도 하다.","fields":{"slug":"/20191222-2019-retrospective/","path":"/2019/12/22/2019-retrospective/","lang":"ko"},"frontmatter":{"date":"2019-12-22","title":"20대의 마지막, 2019년을 돌아보며","categories":["에세이"],"thumbnail":{"childImageSharp":{"fluid":{"base64":"data:image/png;base64,iVBORw0KGgoAAAANSUhEUgAAABQAAAALCAIAAADwazoUAAAACXBIWXMAAAsSAAALEgHS3X78AAABT0lEQVQoz2MoW7qebMSAVbR06fripRuKV2wuXrkZyCglXnPJknVNqzZNWr2paepsIJq8elPzqs2lxGguB2peun5TVfmNzPjn6VHP0iJu5iSuLC7IXbC6cjm6E7DZvGzjntbGh2XZDzsbH7TVPanMXVVR6t42OXfeisrlGwk7+8DVm/efPLtx9/71u/cfPXu+8eR5h9pu9+YJ6bOWAvWXEtB86dqtO/ev3LoLRHfuPdhw7LRTfa9rY69LQ1/C1AUVyzeUL8Ph5+LF645cufHyxcvHT589evLszavX206dd6zrcWvqd23sc6rviZowp3wZUP8GbAG2ZN3UbXsX7Towd8e+eTv2L959qGLBKrhmN7D+4J4ZxYvXYo/nosVrYyfPs6vpsqnqsK3ptK/tBmpDRkD9fu1TsGsG2l+9YlPO3BU+bZOBFrqD7URGQPtdGnoB6GeFp3Yan+cAAAAASUVORK5CYII=","aspectRatio":1.7699115044247788,"src":"/static/593710dba7706a667b4fa57cea95dadc/ee604/thumbnail.png","srcSet":"/static/593710dba7706a667b4fa57cea95dadc/69585/thumbnail.png 200w,\n/static/593710dba7706a667b4fa57cea95dadc/497c6/thumbnail.png 400w,\n/static/593710dba7706a667b4fa57cea95dadc/ee604/thumbnail.png 800w,\n/static/593710dba7706a667b4fa57cea95dadc/f3583/thumbnail.png 1200w,\n/static/593710dba7706a667b4fa57cea95dadc/5707d/thumbnail.png 1600w,\n/static/593710dba7706a667b4fa57cea95dadc/eeb1b/thumbnail.png 1920w","sizes":"(max-width: 800px) 100vw, 800px"}}},"tags":["회고","Retrospective"]}}},{"node":{"excerpt":"최근 많은 언어들이 함수형 프로그래밍 패러다임을 도입하며, 이에 대한 개발자들의 관심 또한 나날히 높아지고 있다. 필자 또한 라는 책을 읽으면서 기존의 패러다임과 사뭇 다른 함수형 프로그래밍에 대해 많은 관심을 가지게 되었던 기억이 있다.","fields":{"slug":"/20191215-about-functional-thinking/","path":"/2019/12/15/about-functional-thinking/","lang":"ko"},"frontmatter":{"date":"2019-12-15","title":"기존의 사고 방식을 깨부수는 함수형 사고","categories":["프로그래밍","아키텍처"],"thumbnail":{"childImageSharp":{"fluid":{"base64":"data:image/png;base64,iVBORw0KGgoAAAANSUhEUgAAABQAAAALCAIAAADwazoUAAAACXBIWXMAAAsSAAALEgHS3X78AAAA5ElEQVQoz2P4fzONbMRAQMWt9H83yNN8K+3X1ZS/d9P/304nTfPf62n/H2acWBPRX+f153oq0CDSbP4LdPCDjPndftvnh/x/nPkXaAQ+zbdTEegWWPPzrMZi95mdvv9fZP+5jttmYMB8OZ/941LWt4tZ3y9n/rqS9v9O2qn1USnRDhPqvf7fT/9zOfkfquUomh/sLb63u+TJwcKH+0o+ncj4fyF+85yQx8cSFvT6rZoa+P9s/N8rKcDwx+HsO1AHg8nU/0Bn30n/fzf97+20z+eTCQQY0PJ/qNIgEYjgbTISCV4EAN+Q4uFhYvICAAAAAElFTkSuQmCC","aspectRatio":1.7699115044247788,"src":"/static/9044dbb610cf83c50525198f5c9e28fb/ee604/thumbnail.png","srcSet":"/static/9044dbb610cf83c50525198f5c9e28fb/69585/thumbnail.png 200w,\n/static/9044dbb610cf83c50525198f5c9e28fb/497c6/thumbnail.png 400w,\n/static/9044dbb610cf83c50525198f5c9e28fb/ee604/thumbnail.png 800w,\n/static/9044dbb610cf83c50525198f5c9e28fb/f3583/thumbnail.png 1200w,\n/static/9044dbb610cf83c50525198f5c9e28fb/5707d/thumbnail.png 1600w,\n/static/9044dbb610cf83c50525198f5c9e28fb/eeb1b/thumbnail.png 1920w","sizes":"(max-width: 800px) 100vw, 800px"}}},"tags":["함수형 프로그래밍","함수형 사고","Functional Programming","Functional Thinking","명령형 프로그래밍","객체지향 프로그래밍","선언형 프로그래밍"]}}}],"pageInfo":{"currentPage":1,"pageCount":5}}},"pageContext":{"limit":15,"skip":0,"lang":"ko","totalCount":71}}}