{"componentChunkName":"component---src-templates-category-page-template-tsx","path":"/categories/에세이/page/2/","result":{"data":{"allMarkdownRemark":{"edges":[{"node":{"excerpt":"이번 포스팅에서는 필자가 많이 받은 질문 중 하나인 라는 질문에 대해서 한번 이야기 해볼까 한다. 물론 이 주제는 전 세계의 많은 개발자들 간에도 의견이 갈리는 내용이기 때문에 그냥 지나가는 개발자 한명의 생각일 뿐이라고 생각해줬으면 좋겠다.","fields":{"slug":"/20190717-programmer-with-math/","path":"/2019/07/17/programmer-with-math/","lang":"ko"},"frontmatter":{"date":"2019-07-17","title":"프로그래머는 수학을 잘해야할까?","categories":["프로그래밍","에세이","알고리즘"],"thumbnail":{"childImageSharp":{"fluid":{"base64":"data:image/jpeg;base64,/9j/2wBDABALDA4MChAODQ4SERATGCgaGBYWGDEjJR0oOjM9PDkzODdASFxOQERXRTc4UG1RV19iZ2hnPk1xeXBkeFxlZ2P/2wBDARESEhgVGC8aGi9jQjhCY2NjY2NjY2NjY2NjY2NjY2NjY2NjY2NjY2NjY2NjY2NjY2NjY2NjY2NjY2NjY2NjY2P/wgARCAAPABQDASIAAhEBAxEB/8QAFwABAQEBAAAAAAAAAAAAAAAABAABBf/EABYBAQEBAAAAAAAAAAAAAAAAAAIAAf/aAAwDAQACEAMQAAABIsW4ulCo/wD/xAAZEAACAwEAAAAAAAAAAAAAAAAAAgEDERP/2gAIAQEAAQUCW2wSx5NY5MIbB//EABURAQEAAAAAAAAAAAAAAAAAABAh/9oACAEDAQE/AYf/xAAUEQEAAAAAAAAAAAAAAAAAAAAQ/9oACAECAQE/AT//xAAZEAADAAMAAAAAAAAAAAAAAAAAATIzYaH/2gAIAQEABj8Ctlstj0UZOH//xAAaEAEAAwEBAQAAAAAAAAAAAAABABEhMUGB/9oACAEBAAE/IYxumG8DgShazrkPcY35b6n/2gAMAwEAAgADAAAAEMP/AP/EABURAQEAAAAAAAAAAAAAAAAAAAAh/9oACAEDAQE/ECP/xAAWEQEBAQAAAAAAAAAAAAAAAAAAESH/2gAIAQIBAT8Q1X//xAAdEAEAAwABBQAAAAAAAAAAAAABABEhMVFxkaHR/9oACAEBAAE/EGGechf18SQ8/U+TQcRGY7HRu61Y1faFeRbtKf/Z","aspectRatio":1.3333333333333333,"src":"/static/7dcd9f83bd0b0992a2a168e5c698d19b/14b42/thumbnail.jpg","srcSet":"/static/7dcd9f83bd0b0992a2a168e5c698d19b/f836f/thumbnail.jpg 200w,\n/static/7dcd9f83bd0b0992a2a168e5c698d19b/2244e/thumbnail.jpg 400w,\n/static/7dcd9f83bd0b0992a2a168e5c698d19b/14b42/thumbnail.jpg 800w,\n/static/7dcd9f83bd0b0992a2a168e5c698d19b/47498/thumbnail.jpg 1200w,\n/static/7dcd9f83bd0b0992a2a168e5c698d19b/0e329/thumbnail.jpg 1600w,\n/static/7dcd9f83bd0b0992a2a168e5c698d19b/00f91/thumbnail.jpg 2767w","sizes":"(max-width: 800px) 100vw, 800px"}}},"tags":["수학","프로그래밍","알고리즘","논리학"]}}},{"node":{"excerpt":"이번 포스팅에서는 에 대해서 이야기해볼까한다. 데이터 기반 의사결정은 2013년 쯤 빅데이터 열풍이 불면서 뜨기 시작했다. 이미 많은 기업들이 사용하고 있는 의사결정 방법이며 또한 여러가지 선례도 많기 때문에 나름 신뢰성을 가지는 의사결정 방법이다.","fields":{"slug":"/20190704-danger-of-data-driven/","path":"/2019/07/04/danger-of-data-driven/","lang":"ko"},"frontmatter":{"date":"2019-07-04","title":"데이터 기반 의사결정, 과연 완벽한 걸까?","categories":["소프트스킬","에세이"],"thumbnail":{"childImageSharp":{"fluid":{"base64":"data:image/jpeg;base64,/9j/2wBDABALDA4MChAODQ4SERATGCgaGBYWGDEjJR0oOjM9PDkzODdASFxOQERXRTc4UG1RV19iZ2hnPk1xeXBkeFxlZ2P/2wBDARESEhgVGC8aGi9jQjhCY2NjY2NjY2NjY2NjY2NjY2NjY2NjY2NjY2NjY2NjY2NjY2NjY2NjY2NjY2NjY2NjY2P/wgARCAANABQDASIAAhEBAxEB/8QAGQAAAQUAAAAAAAAAAAAAAAAAAAECAwQF/8QAFAEBAAAAAAAAAAAAAAAAAAAAAv/aAAwDAQACEAMQAAAB1YrSIg4K/8QAGhABAQACAwAAAAAAAAAAAAAAAQIAEQMQFP/aAAgBAQABBQK+WYz0xsdiDhIdf//EABURAQEAAAAAAAAAAAAAAAAAABAh/9oACAEDAQE/Aaf/xAAWEQADAAAAAAAAAAAAAAAAAAABEBH/2gAIAQIBAT8BEX//xAAaEAACAgMAAAAAAAAAAAAAAAAAARAhETFB/9oACAEBAAY/ArOmUWaUf//EABwQAAICAgMAAAAAAAAAAAAAAAERACFBYRAxUf/aAAgBAQABPyHs5filCkOYDEGAEAI3ESq1x//aAAwDAQACAAMAAAAQAw//xAAXEQEAAwAAAAAAAAAAAAAAAAABEBEh/9oACAEDAQE/EEvjH//EABcRAQADAAAAAAAAAAAAAAAAAAEQESH/2gAIAQIBAT8QVdI//8QAHBABAAICAwEAAAAAAAAAAAAAAQARIUEQMXGB/9oACAEBAAE/EFk3dGrGlwWmR8h5F6FKiNq0LmHRFDSz7x//2Q==","aspectRatio":1.550387596899225,"src":"/static/62d8b411322961c62d1d801e6d053f62/14b42/thumbnail.jpg","srcSet":"/static/62d8b411322961c62d1d801e6d053f62/f836f/thumbnail.jpg 200w,\n/static/62d8b411322961c62d1d801e6d053f62/2244e/thumbnail.jpg 400w,\n/static/62d8b411322961c62d1d801e6d053f62/14b42/thumbnail.jpg 800w,\n/static/62d8b411322961c62d1d801e6d053f62/47498/thumbnail.jpg 1200w,\n/static/62d8b411322961c62d1d801e6d053f62/0e329/thumbnail.jpg 1600w,\n/static/62d8b411322961c62d1d801e6d053f62/e85c0/thumbnail.jpg 3100w","sizes":"(max-width: 800px) 100vw, 800px"}}},"tags":["Data Driven","데이터 기반 의사결정"]}}},{"node":{"excerpt":"2016년 처음 회사에서 개발자로 일을 시작해서 2019년 이 글을 쓰고 있는 지금까지 늘 의문이었던 좋은 프로그래머, 또는 좋은 개발자는 무엇을 뜻하는 것인가에 대해서 글을 한번 끄적여볼까 한다. 사실 대학생 때 처음 프로그래밍이라는 것에 빠져들었을 때는 말 그대로  였던 것 같다. 사용하는 언어에 잘 어룰리는 패턴을 연구하고 효율적인 알고리즘이 몸에 배어있고 변경사항에 유연하고 확장성이 뛰어난 설계를 하는 그런 것들에 한창 목마를 때였다. 왜 이렇게 생각하게 됐는지는 간단하다. 기술적으로 뛰어난 사람? 필자는 201…","fields":{"slug":"/20190606-what-is-good-programmer/","path":"/2019/06/06/what-is-good-programmer/","lang":"ko"},"frontmatter":{"date":"2019-06-06","title":"좋은 프로그래머란 무엇일까?","categories":["에세이"],"thumbnail":{"childImageSharp":{"fluid":{"base64":"data:image/jpeg;base64,/9j/2wBDABALDA4MChAODQ4SERATGCgaGBYWGDEjJR0oOjM9PDkzODdASFxOQERXRTc4UG1RV19iZ2hnPk1xeXBkeFxlZ2P/2wBDARESEhgVGC8aGi9jQjhCY2NjY2NjY2NjY2NjY2NjY2NjY2NjY2NjY2NjY2NjY2NjY2NjY2NjY2NjY2NjY2NjY2P/wgARCAAMABQDASIAAhEBAxEB/8QAGAAAAwEBAAAAAAAAAAAAAAAAAAIDAQT/xAAWAQEBAQAAAAAAAAAAAAAAAAABAAP/2gAMAwEAAhADEAAAAUWXLpaSE//EABsQAAICAwEAAAAAAAAAAAAAAAECAAMQERQj/9oACAEBAAEFAuhhLbW2WMYeOP/EABURAQEAAAAAAAAAAAAAAAAAABAR/9oACAEDAQE/Aaf/xAAVEQEBAAAAAAAAAAAAAAAAAAABEP/aAAgBAgEBPwEJ/8QAGRAAAgMBAAAAAAAAAAAAAAAAARAAAiFB/9oACAEBAAY/AuzSql//xAAaEAADAAMBAAAAAAAAAAAAAAAAAREhMWFB/9oACAEBAAE/IUsvE4Nx0GnsTgRljo3k/9oADAMBAAIAAwAAABADH//EABURAQEAAAAAAAAAAAAAAAAAAAEQ/9oACAEDAQE/EFT/xAAWEQEBAQAAAAAAAAAAAAAAAAARAAH/2gAIAQIBAT8QwGMv/8QAGhAAAwEBAQEAAAAAAAAAAAAAAREhAHFhMf/aAAgBAQABPxClHCmrzJ8YLJFFczppov00dwI7M+3GZTwb/9k=","aspectRatio":1.6528925619834711,"src":"/static/8e3799a686b0ec2f2f6b8877b80bea42/14b42/3deditor.jpg","srcSet":"/static/8e3799a686b0ec2f2f6b8877b80bea42/f836f/3deditor.jpg 200w,\n/static/8e3799a686b0ec2f2f6b8877b80bea42/2244e/3deditor.jpg 400w,\n/static/8e3799a686b0ec2f2f6b8877b80bea42/14b42/3deditor.jpg 800w,\n/static/8e3799a686b0ec2f2f6b8877b80bea42/a6352/3deditor.jpg 960w","sizes":"(max-width: 800px) 100vw, 800px"}}},"tags":["에세이","Essay","Good Programmer","좋은 프로그래머","프로그래머","Programmer"]}}}],"pageInfo":{"currentPage":2,"pageCount":2}}},"pageContext":{"category":"에세이","limit":15,"skip":15,"lang":"ko","totalCount":18}}}